\relax 
\citation{paliwahet2017pencarian}
\citation{maskur2016perancangan}
\citation{christianto2016penggunaan}
\@writefile{toc}{\contentsline {chapter}{\numberline {II}LANDASAN TEORI}{4}\protected@file@percent }
\@writefile{lof}{\addvspace {10\p@ }}
\@writefile{lot}{\addvspace {10\p@ }}
\@writefile{toc}{\contentsline {section}{\numberline {2.1}Deskripsi Topik Yang Sama}{4}\protected@file@percent }
\@writefile{toc}{\contentsline {subsection}{\numberline {2.1.1}Pencarian Informasi Wisata Daerah Bali menggunakan Teknologi Chatbot}{4}\protected@file@percent }
\@writefile{toc}{\contentsline {paragraph}{}{4}\protected@file@percent }
\@writefile{toc}{\contentsline {subsection}{\numberline {2.1.2}Perancangan Chatbot Pusat Informasi Mahasiswa Menggunakan Aiml Sebagai Virtual Assistant Berbasis Web}{4}\protected@file@percent }
\@writefile{toc}{\contentsline {paragraph}{}{4}\protected@file@percent }
\@writefile{toc}{\contentsline {subsection}{\numberline {2.1.3}Penggunaan Named Entity Recognition dan Artificial Intelligence Markup Language untuk Penerapan Chatbot Berbasis Teks}{4}\protected@file@percent }
\@writefile{toc}{\contentsline {paragraph}{}{4}\protected@file@percent }
\citation{sari2018implementasi}
\@writefile{toc}{\contentsline {section}{\numberline {2.2}Deskripsi Metode Yang Sama}{5}\protected@file@percent }
\@writefile{toc}{\contentsline {subsection}{\numberline {2.2.1}Implementasi Natural Language Processing pada Chatbot Peribahasa Indonesia}{5}\protected@file@percent }
\@writefile{toc}{\contentsline {paragraph}{}{5}\protected@file@percent }
\@writefile{toc}{\contentsline {subsection}{\numberline {2.2.2}\textit  {Comparative study of document similarity algorithms and clustering algorithms for sentiment analysis}}{5}\protected@file@percent }
\@writefile{toc}{\contentsline {paragraph}{}{5}\protected@file@percent }
\citation{deshpande2014comparative}
\citation{wahyuni2017penerapan}
\citation{lahitani2016cosine}
\citation{nurdiana2016perbandingan}
\@writefile{toc}{\contentsline {subsection}{\numberline {2.2.3}Penerapan Algoritma Cosine Similarity dan Pembobotan TF-IDF pada Sistem Klasifikasi Dokumen Skripsi}{6}\protected@file@percent }
\@writefile{toc}{\contentsline {paragraph}{}{6}\protected@file@percent }
\@writefile{toc}{\contentsline {subsection}{\numberline {2.2.4}\textit  {Cosine similarity to determine similarity measure: Study case in online essay assessment}}{6}\protected@file@percent }
\@writefile{toc}{\contentsline {paragraph}{}{6}\protected@file@percent }
\citation{kmsuper}
\citation{nugraha2014pengembangan}
\@writefile{toc}{\contentsline {subsection}{\numberline {2.2.5}Perbandingan Metode Cosine Similarity Dengan Metode Jaccard Similarity Pada Aplikasi Pencarian Terjemah Al-Qur\IeC {\textquoteright }an Dalam Bahasa Indonesia}{7}\protected@file@percent }
\@writefile{toc}{\contentsline {paragraph}{}{7}\protected@file@percent }
\@writefile{toc}{\contentsline {subsection}{\numberline {2.2.6}Super Agent Chatbot \IeC {\textquotedblleft }3S\IeC {\textquotedblright } Sebagai Media Informasi Menggunakan Metoda Natural Language Processing (NLP)}{7}\protected@file@percent }
\@writefile{toc}{\contentsline {paragraph}{}{7}\protected@file@percent }
\@writefile{toc}{\contentsline {section}{\numberline {2.3}Teori Pendukung Penelitian}{7}\protected@file@percent }
\@writefile{toc}{\contentsline {subsection}{\numberline {2.3.1}\textit  {Artificial Intelligence}}{7}\protected@file@percent }
\@writefile{toc}{\contentsline {paragraph}{}{7}\protected@file@percent }
\citation{ridwan2013pembangunan}
\citation{sari2018implementasi}
\citation{HAN201283}
\citation{rahman2017programming}
\citation{bahartyan2015integrasi}
\citation{pradnyana2012perancangan}
\citation{nurdiana2016perbandingan}
\citation{HAN201239}
\@writefile{toc}{\contentsline {subsection}{\numberline {2.3.2}\textit  {Natural Language Processing}}{8}\protected@file@percent }
\@writefile{toc}{\contentsline {paragraph}{}{8}\protected@file@percent }
\@writefile{toc}{\contentsline {paragraph}{}{8}\protected@file@percent }
\@writefile{toc}{\contentsline {subsection}{\numberline {2.3.3}\textit  {Chatbot}}{8}\protected@file@percent }
\@writefile{toc}{\contentsline {paragraph}{}{8}\protected@file@percent }
\citation{nila2016rancang}
\citation{sari2018implementasi}
\@writefile{toc}{\contentsline {subsection}{\numberline {2.3.4}Algoritma Cosine Similarity}{9}\protected@file@percent }
\@writefile{toc}{\contentsline {paragraph}{}{9}\protected@file@percent }
\@writefile{lof}{\contentsline {figure}{\numberline {II.1}{\ignorespaces Rumus Umum Cosine Similarity\relax }}{9}\protected@file@percent }
\providecommand*\caption@xref[2]{\@setref\relax\@undefined{#1}}
\newlabel{cosine}{{II.1}{9}}
\@writefile{toc}{\contentsline {subsection}{\numberline {2.3.5}\textit  {Text Mining}}{9}\protected@file@percent }
\@writefile{toc}{\contentsline {paragraph}{}{9}\protected@file@percent }
\citation{fauziah2014aplikasi}
\citation{fauziah2014aplikasi}
\citation{wolstencroft2013taverna}
\citation{fauziah2014aplikasi}
\@writefile{toc}{\contentsline {subsection}{\numberline {2.3.6}\textit  {Webservice}}{10}\protected@file@percent }
\@writefile{toc}{\contentsline {paragraph}{}{10}\protected@file@percent }
\@writefile{toc}{\contentsline {subsubsection}{\numberline {2.3.6.1}\textit  {Representational State Transfer (REST)}}{10}\protected@file@percent }
\@writefile{toc}{\contentsline {paragraph}{}{10}\protected@file@percent }
\citation{mustaqbal2016pengujian}
\citation{howden1980functional}
\@writefile{toc}{\contentsline {subsection}{\numberline {2.3.7}\textit  {Black Box Testing}}{11}\protected@file@percent }
\@writefile{toc}{\contentsline {paragraph}{}{11}\protected@file@percent }
\@setckpt{section/chapter2}{
\setcounter{page}{12}
\setcounter{equation}{0}
\setcounter{enumi}{5}
\setcounter{enumii}{0}
\setcounter{enumiii}{0}
\setcounter{enumiv}{0}
\setcounter{footnote}{0}
\setcounter{mpfootnote}{0}
\setcounter{part}{0}
\setcounter{chapter}{2}
\setcounter{section}{3}
\setcounter{subsection}{7}
\setcounter{subsubsection}{0}
\setcounter{paragraph}{0}
\setcounter{subparagraph}{0}
\setcounter{figure}{1}
\setcounter{table}{0}
\setcounter{caption@flags}{0}
\setcounter{ContinuedFloat}{0}
}
